29,Signings,2000,50,50,None
23,Ringtones,5000,150,50,None
24,Music Downloads,30000,500,50,None
58,Posters,100000,2000,50,None
16,Web Page,200000,3000,50,None
17,T-Shirts,400000,6000,50,None
59,Hoodies,1000000,10000,50,None
60,Record a CD,2500000,25000,50,None
61,Greatest Hits Album,10000000,90000,50,None
62,Music Video,25000000,200000,50,None
18,MTV Show,50000000,350000,50,None
