1,Meadow,5000,100,10,None
2,Town Lot,50000,300,10,None
3,Fiefdom,1000000,2000,10,None
4,Country,4000000,8000,10,None
13,Drunken Dragon Tavern,10000,0,1,2
5,Farm House,10000,300,10,1
6,Townhouse,30000,700,10,2
7,Mansion,200000,5000,10,2
8,Village,400000,10000,10,3
9,Keep,5000000,50000,10,4
10,City,16000000,150000,10,3
11,Stronghold,20000000,200000,10,4
12,Kingdom,40000000,300000,10,3
17,Apothecary,10000,0,1,2
16,Training Grounds,10000,0,1,2
15,Magic Shop,10000,0,1,2
14,Saphronia's Stables,10000,0,1,2
