44,Field,500,10,10,None
45,Farm,1000,30,10,None
46,Forest,5000,165,10,None
47,City Street,95000,1000,10,None
48,Copper Field,100000,1100,10,None
49,100 Acre Plot,650000,7000,10,None
104,Silver Field,950000,10000,10,None
106,Oil Seep,1000000,12000,10,None
117,Dock,1500000,14500,10,None
50,Shack,1200,40,10,44
51,Livestock House,2500,100,10,45
95,Small Manor,4500,250,10,45
53,Lumber Mill,30000,400,10,46
96,Tavern,300000,3150,10,47
55,Blacksmith Shop,500000,4950,10,47
56,Copper Mine,600000,6125,10,48
57,Dark Castle,2500000,20000,10,49
105,Silver Mine,3000000,32000,10,104
107,Oil Well,3250000,37500,10,106
118,Trade Ship,3750000,44000,10,117
